17

H          0.65708        0.05642       -1.61274
C          0.00802       -0.35817       -0.83293
C         -1.32105       -0.72071       -1.49326
O         -1.77964       -0.24417       -2.51847
O         -2.04834       -1.60727       -0.77172
H         -2.84845       -1.74157       -1.32222
C         -0.28266        0.66650        0.26131
C          0.96083        1.43552        0.61737
H         -1.02506        1.40198       -0.07542
N          0.66222       -1.58284       -0.31232
H          0.00906       -2.06165        0.30980
H          1.48187       -1.32910        0.23651
O          1.52539        2.20369       -0.15086
N          1.45424        1.19995        1.86650
H         -0.71390        0.18766        1.14881
H          0.93067        0.71637        2.58283
H          2.25925        1.74436        2.15160
