14

C         -0.38611        0.02261       -0.18413
C          0.01894       -1.42398        0.10594
O          0.74054       -2.12516       -0.58736
O         -0.52636       -1.91421        1.23545
C          0.22230        0.93505        0.88870
S         -0.27860        2.67512        0.67647
N          0.06088        0.40451       -1.55347
H         -1.48136        0.06874       -0.16577
H         -0.21172       -2.84266        1.27736
H          1.31715        0.88922        0.85614
H         -0.08129        0.61929        1.89235
H         -0.06862        2.70308       -0.65139
H         -0.36412       -0.24760       -2.21695
H          1.06328        0.20921       -1.62635
