20

N          0.48864       -1.77195       -0.78167
C          0.89162       -0.35776       -0.97622
C          2.40342       -0.26012       -1.17436
O          3.10893       -1.05244       -0.33380
O          2.98534        0.49431       -1.93752
C          0.51536        0.54798        0.21018
H          0.91074        1.55818        0.04024
H          1.00592        0.18425        1.12357
C         -0.95618        0.65309        0.43741
N         -1.54666        0.43697        1.65894
C         -2.89000        0.63013        1.50941
H         -3.58953        0.52287        2.32784
N         -3.19409        0.95626        0.27555
C         -2.00200        0.98462       -0.39817
H         -1.96174        1.24026       -1.44995
H         -1.08073        0.18873        2.52114
H         -0.49677       -1.80233       -0.51954
H          1.01777       -2.15106        0.00485
H          0.41815       -0.00744       -1.90072
H          4.03988       -0.88936       -0.59461
