22

C          2.37026        0.14551        0.38829
C          1.10221       -0.69433        0.16761
C         -0.14744        0.22990        0.09536
C         -1.45972       -0.58246       -0.01971
C         -2.72083        0.26959       -0.09465
O          2.66574        0.76067        1.40254
O          3.17892        0.17830       -0.69075
N          1.03462       -1.68577        1.26246
H          1.21074       -1.24874       -0.77224
C         -0.01433        1.21468       -1.07900
H         -1.56923       -1.23134        0.85602
H         -1.41784       -1.23696       -0.89881
H         -2.78667        0.81138       -1.04246
H         -2.75751        0.99183        0.72681
H         -3.60751       -0.36907       -0.02365
H          3.94451        0.70972       -0.38851
H          0.20466       -2.26466        1.16867
H          0.95225       -1.18699        2.15038
H         -0.19604        0.82571        1.01748
H         -0.83816        1.93456       -1.09264
H         -0.00606        0.68502       -2.03756
H          0.90443        1.80506       -1.00960
