24

N          1.64166       -2.25043       -0.15133
C          1.44277       -1.11651       -1.08408
C          2.78466       -0.71993       -1.71377
O          2.67116        0.23881       -2.65355
C          0.81442        0.07953       -0.35605
C         -0.58546       -0.22064        0.19123
C         -1.19923        1.01558        0.85354
C         -2.59641        0.71588        1.39392
N         -3.16038        1.90423        2.02380
O          3.87506       -1.21288       -1.46501
H          2.29735       -1.95461        0.57550
H          2.14487       -2.98701       -0.65161
H          0.79025       -1.46067       -1.89455
H          3.58825        0.36680       -2.97560
H          0.74729        0.93095       -1.04537
H          1.46965        0.40530        0.46294
H         -0.53815       -1.03489        0.92362
H         -1.23315       -0.55696       -0.62753
H         -1.25004        1.83358        0.12380
H         -0.54925        1.35215        1.67119
H         -2.55005       -0.09175        2.13222
H         -3.25507        0.38870        0.58188
H         -4.10756        1.70022        2.34000
H         -3.24375        2.65098        1.33535
